<?xml version="1.0" encoding="UTF-8" standalone="no"?>
<!-- Created with Inkscape (http://www.inkscape.org/) -->

<svg
   xmlns:dc="http://purl.org/dc/elements/1.1/"
   xmlns:cc="http://creativecommons.org/ns#"
   xmlns:rdf="http://www.w3.org/1999/02/22-rdf-syntax-ns#"
   xmlns:svg="http://www.w3.org/2000/svg"
   xmlns="http://www.w3.org/2000/svg"
   xmlns:xlink="http://www.w3.org/1999/xlink"
   xmlns:sodipodi="http://sodipodi.sourceforge.net/DTD/sodipodi-0.dtd"
   xmlns:inkscape="http://www.inkscape.org/namespaces/inkscape"
   id="svg2405"
   height="64"
   width="64"
   version="1.1"
   inkscape:version="0.92.5 (2060ec1f9f, 2020-04-08)"
   sodipodi:docname="graph.svg"
   inkscape:export-filename="/home/kms/home/phylo/phagealignment/lib/images/graph.png"
   inkscape:export-xdpi="94.809998"
   inkscape:export-ydpi="94.809998">
  <metadata
     id="metadata59">
    <rdf:RDF>
      <cc:Work
         rdf:about="">
        <dc:format>image/svg+xml</dc:format>
        <dc:type
           rdf:resource="http://purl.org/dc/dcmitype/StillImage" />
        <dc:title></dc:title>
      </cc:Work>
    </rdf:RDF>
  </metadata>
  <sodipodi:namedview
     pagecolor="#ffffff"
     bordercolor="#666666"
     borderopacity="1"
     objecttolerance="10"
     gridtolerance="10"
     guidetolerance="10"
     inkscape:pageopacity="0"
     inkscape:pageshadow="2"
     inkscape:window-width="1920"
     inkscape:window-height="1136"
     id="namedview57"
     showgrid="false"
     inkscape:zoom="5.6568543"
     inkscape:cx="52.823897"
     inkscape:cy="67.6802"
     inkscape:window-x="0"
     inkscape:window-y="27"
     inkscape:window-maximized="0"
     inkscape:current-layer="svg2405"
     fit-margin-top="10"
     fit-margin-left="10"
     fit-margin-right="10"
     fit-margin-bottom="10" />
  <defs
     id="defs2407">
    <marker
       inkscape:isstock="true"
       style="overflow:visible"
       id="marker5205"
       refX="0"
       refY="0"
       orient="auto"
       inkscape:stockid="Arrow1Send">
      <path
         style="fill:#a02c2c;fill-opacity:1;fill-rule:evenodd;stroke:#a02c2c;stroke-width:0.21333334pt;stroke-opacity:1"
         d="M -1.28,0 -2.3466667,1.0666667 1.3866667,0 -2.3466667,-1.0666667 Z"
         id="path5207"
         inkscape:connector-curvature="0" />
    </marker>
    <marker
       inkscape:isstock="true"
       style="overflow:visible"
       id="marker5123"
       refX="0"
       refY="0"
       orient="auto"
       inkscape:stockid="Arrow1Send">
      <path
         style="fill:#ffcc00;fill-opacity:1;fill-rule:evenodd;stroke:#ffcc00;stroke-width:0.21333334pt;stroke-opacity:1"
         d="M -1.28,0 -2.3466667,1.0666667 1.3866667,0 -2.3466667,-1.0666667 Z"
         id="path5125"
         inkscape:connector-curvature="0" />
    </marker>
    <marker
       inkscape:isstock="true"
       style="overflow:visible"
       id="marker5047"
       refX="0"
       refY="0"
       orient="auto"
       inkscape:stockid="Arrow1Send">
      <path
         style="fill:#0000ff;fill-opacity:1;fill-rule:evenodd;stroke:#0000ff;stroke-width:0.21333334pt;stroke-opacity:1"
         d="M -1.28,0 -2.3466667,1.0666667 1.3866667,0 -2.3466667,-1.0666667 Z"
         id="path5049"
         inkscape:connector-curvature="0" />
    </marker>
    <marker
       inkscape:isstock="true"
       style="overflow:visible"
       id="marker4977"
       refX="0"
       refY="0"
       orient="auto"
       inkscape:stockid="Arrow1Send">
      <path
         style="fill:#008000;fill-opacity:1;fill-rule:evenodd;stroke:#008000;stroke-width:0.21333334pt;stroke-opacity:1"
         d="M -1.28,0 -2.3466667,1.0666667 1.3866667,0 -2.3466667,-1.0666667 Z"
         id="path4979"
         inkscape:connector-curvature="0" />
    </marker>
    <marker
       inkscape:isstock="true"
       style="overflow:visible"
       id="marker4913"
       refX="0"
       refY="0"
       orient="auto"
       inkscape:stockid="Arrow1Send">
      <path
         style="fill:#ff0000;fill-opacity:1;fill-rule:evenodd;stroke:#ff0000;stroke-width:0.21333334pt;stroke-opacity:1"
         d="M -1.28,0 -2.3466667,1.0666667 1.3866667,0 -2.3466667,-1.0666667 Z"
         id="path4915"
         inkscape:connector-curvature="0" />
    </marker>
    <marker
       inkscape:isstock="true"
       style="overflow:visible"
       id="marker4903"
       refX="0"
       refY="0"
       orient="auto"
       inkscape:stockid="Arrow1Send">
      <path
         style="fill:#800080;fill-opacity:1;fill-rule:evenodd;stroke:#800080;stroke-width:0.21333334pt;stroke-opacity:1"
         d="M -1.28,0 -2.3466667,1.0666667 1.3866667,0 -2.3466667,-1.0666667 Z"
         id="path4905"
         inkscape:connector-curvature="0" />
    </marker>
    <marker
       inkscape:stockid="Arrow1Send"
       orient="auto"
       refY="0"
       refX="0"
       id="Arrow1Send"
       style="overflow:visible"
       inkscape:isstock="true"
       inkscape:collect="always">
      <path
         id="path4340"
         d="M -1.28,0 -2.3466667,1.0666667 1.3866667,0 -2.3466667,-1.0666667 Z"
         style="fill:#2ca05a;fill-opacity:1;fill-rule:evenodd;stroke:#2ca05a;stroke-width:0.21333334pt;stroke-opacity:1"
         inkscape:connector-curvature="0" />
    </marker>
    <marker
       inkscape:isstock="true"
       style="overflow:visible"
       id="marker4771"
       refX="0"
       refY="0"
       orient="auto"
       inkscape:stockid="Arrow2Lend">
      <path
         d="M -11.403143,-4.732916 1.416553,-0.01878889 -11.403144,4.6953372 c 2.0480517,-2.7832182 2.0362508,-6.5911436 10e-7,-9.4282532 z"
         style="fill:#000000;fill-opacity:1;fill-rule:evenodd;stroke:#000000;stroke-width:0.73333335;stroke-linejoin:round;stroke-opacity:1"
         id="path4773"
         inkscape:connector-curvature="0" />
    </marker>
    <marker
       inkscape:isstock="true"
       style="overflow:visible"
       id="marker4725"
       refX="0"
       refY="0"
       orient="auto"
       inkscape:stockid="Arrow2Lend">
      <path
         d="M -11.403143,-4.732916 1.416553,-0.01878889 -11.403144,4.6953372 c 2.0480517,-2.7832182 2.0362508,-6.5911436 10e-7,-9.4282532 z"
         style="fill:#000000;fill-opacity:1;fill-rule:evenodd;stroke:#000000;stroke-width:0.73333335;stroke-linejoin:round;stroke-opacity:1"
         id="path4727"
         inkscape:connector-curvature="0" />
    </marker>
    <marker
       inkscape:isstock="true"
       style="overflow:visible"
       id="marker4685"
       refX="0"
       refY="0"
       orient="auto"
       inkscape:stockid="Arrow2Lend">
      <path
         d="M -11.403143,-4.732916 1.416553,-0.01878889 -11.403144,4.6953372 c 2.0480517,-2.7832182 2.0362508,-6.5911436 10e-7,-9.4282532 z"
         style="fill:#000000;fill-opacity:1;fill-rule:evenodd;stroke:#000000;stroke-width:0.73333335;stroke-linejoin:round;stroke-opacity:1"
         id="path4687"
         inkscape:connector-curvature="0" />
    </marker>
    <marker
       inkscape:isstock="true"
       style="overflow:visible"
       id="marker4651"
       refX="0"
       refY="0"
       orient="auto"
       inkscape:stockid="Arrow2Lend">
      <path
         d="M -11.403143,-4.732916 1.416553,-0.01878889 -11.403144,4.6953372 c 2.0480517,-2.7832182 2.0362508,-6.5911436 10e-7,-9.4282532 z"
         style="fill:#000000;fill-opacity:1;fill-rule:evenodd;stroke:#000000;stroke-width:0.73333335;stroke-linejoin:round;stroke-opacity:1"
         id="path4653"
         inkscape:connector-curvature="0" />
    </marker>
    <marker
       inkscape:isstock="true"
       style="overflow:visible"
       id="marker4623"
       refX="0"
       refY="0"
       orient="auto"
       inkscape:stockid="Arrow2Lend">
      <path
         d="M -11.403143,-4.732916 1.416553,-0.01878889 -11.403144,4.6953372 c 2.0480517,-2.7832182 2.0362508,-6.5911436 10e-7,-9.4282532 z"
         style="fill:#000000;fill-opacity:1;fill-rule:evenodd;stroke:#000000;stroke-width:0.73333335;stroke-linejoin:round;stroke-opacity:1"
         id="path4625"
         inkscape:connector-curvature="0" />
    </marker>
    <marker
       inkscape:isstock="true"
       style="overflow:visible"
       id="marker4601"
       refX="0"
       refY="0"
       orient="auto"
       inkscape:stockid="Arrow2Lend">
      <path
         d="M -11.403143,-4.732916 1.416553,-0.01878889 -11.403144,4.6953372 c 2.0480517,-2.7832182 2.0362508,-6.5911436 10e-7,-9.4282532 z"
         style="fill:#000000;fill-opacity:1;fill-rule:evenodd;stroke:#000000;stroke-width:0.73333335;stroke-linejoin:round;stroke-opacity:1"
         id="path4603"
         inkscape:connector-curvature="0" />
    </marker>
    <linearGradient
       id="linearGradient2781">
      <stop
         id="stop2783"
         offset="0" />
      <stop
         id="stop2785"
         style="stop-opacity:0"
         offset="1" />
    </linearGradient>
    <radialGradient
       id="radialGradient2977"
       gradientUnits="userSpaceOnUse"
       cy="19.554001"
       cx="11.681"
       gradientTransform="matrix(2.0087,0,0,-1.9116,-2.5414,49.212)"
       r="8.2452002">
      <stop
         id="stop2343"
         offset="0" />
      <stop
         id="stop2345"
         style="stop-opacity:0"
         offset="1" />
    </radialGradient>
    <radialGradient
       id="radialGradient2980"
       gradientUnits="userSpaceOnUse"
       cy="24.202999"
       cx="7.5327001"
       gradientTransform="matrix(1.9045,0,0,1.8606,-11.125,-33.328)"
       r="8.2452002">
      <stop
         id="stop2301"
         style="stop-color:#fff"
         offset="0" />
      <stop
         id="stop2303"
         style="stop-color:#fff;stop-opacity:0"
         offset="1" />
    </radialGradient>
    <linearGradient
       id="linearGradient2984"
       y2="35.569"
       gradientUnits="userSpaceOnUse"
       x2="64.388"
       gradientTransform="matrix(0.17289,0,0,0.16955,1.1523,0.58776)"
       y1="65.124001"
       x1="64.388">
      <stop
         id="stop336"
         style="stop-color:#fff"
         offset="0" />
      <stop
         id="stop338"
         style="stop-color:#ff6200"
         offset=".85390" />
      <stop
         id="stop340"
         style="stop-color:#f25d00"
         offset="1" />
    </linearGradient>
    <radialGradient
       id="radialGradient2987"
       gradientUnits="userSpaceOnUse"
       cy="30.443001"
       cx="29.913"
       gradientTransform="matrix(1.2629,0,0,1.1551,-22.727,-19.754)"
       r="4.0019002">
      <stop
         id="stop2370"
         style="stop-color:#fff"
         offset="0" />
      <stop
         id="stop2372"
         style="stop-color:#fff;stop-opacity:0"
         offset="1" />
    </radialGradient>
    <radialGradient
       id="radialGradient2992"
       gradientUnits="userSpaceOnUse"
       cy="37.425999"
       cx="20.444"
       gradientTransform="matrix(0.55242,0,0,0.46777,-0.79572,2.1872)"
       r="1.0821">
      <stop
         id="stop2321"
         offset="0" />
      <stop
         id="stop2323"
         style="stop-opacity:0"
         offset="1" />
    </radialGradient>
    <linearGradient
       id="linearGradient2995"
       y2="45.897999"
       gradientUnits="userSpaceOnUse"
       x2="20.598"
       gradientTransform="matrix(0.35892,0,0,0.55281,3.1701,-1.1491)"
       y1="30.945"
       x1="19.645">
      <stop
         id="stop3658"
         style="stop-color:#c17d11"
         offset="0" />
      <stop
         id="stop3660"
         style="stop-color:#e9b96e"
         offset="1" />
    </linearGradient>
    <linearGradient
       id="linearGradient2998"
       y2="39.408001"
       gradientUnits="userSpaceOnUse"
       x2="17"
       gradientTransform="matrix(0.5,0,0,0.53333,0.5,-2)"
       y1="47.098"
       x1="19.641001">
      <stop
         id="stop3664"
         style="stop-color:#c17d11"
         offset="0" />
      <stop
         id="stop3666"
         style="stop-color:#8f5902"
         offset="1" />
    </linearGradient>
    <linearGradient
       id="linearGradient3001"
       y2="47.866001"
       gradientUnits="userSpaceOnUse"
       x2="24.066999"
       gradientTransform="matrix(0.4414,0,0,0.43367,1.182,1.4643)"
       y1="25.746"
       x1="24.066999">
      <stop
         id="stop4875"
         style="stop-color:#fff"
         offset="0" />
      <stop
         id="stop4877"
         style="stop-color:#fff;stop-opacity:0"
         offset="1" />
    </linearGradient>
    <linearGradient
       id="linearGradient3004"
       y2="5.5"
       gradientUnits="userSpaceOnUse"
       x2="29.816"
       gradientTransform="matrix(0.47204,0,0,0.46117,0.43823,0.73301)"
       y1="46.023998"
       x1="29.816">
      <stop
         id="stop17"
         style="stop-color:#ccc"
         offset="0" />
      <stop
         id="stop19"
         style="stop-color:#fff"
         offset=".9831" />
    </linearGradient>
    <linearGradient
       id="linearGradient2951"
       y2="40"
       gradientUnits="userSpaceOnUse"
       x2="21.875"
       gradientTransform="matrix(0.46809,0,0,0.375,0.53191,6)"
       y1="48.000999"
       x1="21.875">
      <stop
         id="stop2806"
         style="stop-opacity:0"
         offset="0" />
      <stop
         id="stop2812"
         offset=".5" />
      <stop
         id="stop2808"
         style="stop-opacity:0"
         offset="1" />
    </linearGradient>
    <radialGradient
       id="radialGradient2954"
       xlink:href="#linearGradient2781"
       gradientUnits="userSpaceOnUse"
       cy="44"
       cx="1"
       gradientTransform="matrix(0.93617,0,0,0.3,17.383,9.3)"
       r="5" />
    <radialGradient
       id="radialGradient2957"
       xlink:href="#linearGradient2781"
       gradientUnits="userSpaceOnUse"
       cy="44"
       cx="1"
       gradientTransform="matrix(0.93617,0,0,0.3,-6.617,-35.7)"
       r="5" />
  </defs>
  <rect
     style="opacity:0.38100011;fill:#f9f9f9;stroke-width:13.022542;stroke-miterlimit:4;stroke-dasharray:none"
     id="rect3774"
     width="63.782284"
     height="63.860542"
     x="0.125"
     y="0.13945717"
     ry="13.460801" />
  <g
     id="g4281"
     transform="matrix(2.504335,0,0,2.504335,-0.18804188,-2.1144443)">
    <g
       id="g4294"
       transform="translate(-0.51854497,-1.3670731)">
      <rect
         style="opacity:1;fill:none;fill-opacity:1;stroke:#000000;stroke-width:0.21333334;stroke-linecap:round;stroke-linejoin:round;stroke-miterlimit:4;stroke-dasharray:none;stroke-dashoffset:0;stroke-opacity:1"
         id="rect3407"
         width="7.4587398"
         height="14.9491"
         x="2.6231768"
         y="7.6900349"
         ry="1.0126871" />
      <rect
         style="opacity:1;fill:none;fill-opacity:1;stroke:#000000;stroke-width:0.21333334;stroke-linecap:round;stroke-linejoin:round;stroke-miterlimit:4;stroke-dasharray:none;stroke-dashoffset:0;stroke-opacity:1"
         id="rect4209"
         width="7.4423604"
         height="2.1273925"
         x="2.6288476"
         y="9.7574921"
         ry="0" />
      <rect
         style="opacity:1;fill:none;fill-opacity:1;stroke:#000000;stroke-width:0.21333334;stroke-linecap:round;stroke-linejoin:round;stroke-miterlimit:4;stroke-dasharray:none;stroke-dashoffset:0;stroke-opacity:1"
         id="rect4211"
         width="7.460506"
         height="2.1484964"
         x="2.6190348"
         y="14.003346" />
      <rect
         y="18.199303"
         x="2.6190348"
         height="2.1484964"
         width="7.460506"
         id="rect4291"
         style="opacity:1;fill:none;fill-opacity:1;stroke:#000000;stroke-width:0.21333334;stroke-linecap:round;stroke-linejoin:round;stroke-miterlimit:4;stroke-dasharray:none;stroke-dashoffset:0;stroke-opacity:1" />
    </g>
  </g>
  <g
     id="g4276"
     transform="matrix(2.504335,0,0,2.504335,-0.18804188,2.5603227)">
    <rect
       style="opacity:1;fill:none;fill-opacity:1;stroke:#000000;stroke-width:0.21333334;stroke-linecap:round;stroke-linejoin:round;stroke-miterlimit:4;stroke-dasharray:none;stroke-dashoffset:0;stroke-opacity:1"
       id="rect4240"
       width="7.4420729"
       height="8.4241905"
       x="15.53966"
       y="1.8917594"
       ry="1.0126871" />
    <rect
       style="opacity:1;fill:none;fill-opacity:1;stroke:#000000;stroke-width:0.21333334;stroke-linecap:round;stroke-linejoin:round;stroke-miterlimit:4;stroke-dasharray:none;stroke-dashoffset:0;stroke-opacity:1"
       id="rect4242"
       width="7.4364672"
       height="2.1273923"
       x="15.545332"
       y="3.9592166"
       ry="0" />
    <path
       style="opacity:1;fill:none;fill-opacity:1;stroke:#000000;stroke-width:0.21333334;stroke-linecap:round;stroke-linejoin:round;stroke-miterlimit:4;stroke-dasharray:none;stroke-dashoffset:0;stroke-opacity:1"
       d="m 15.556349,8.2051731 h 7.412836"
       id="path4301"
       inkscape:connector-curvature="0"
       sodipodi:nodetypes="cc" />
  </g>
  <g
     id="g4286"
     transform="matrix(2.504335,0,0,2.504335,-1.0228202,5.0646577)">
    <rect
       ry="1.0126871"
       y="14.006855"
       x="15.068255"
       height="6.2374239"
       width="7.4323101"
       id="rect4246"
       style="opacity:1;fill:none;fill-opacity:1;stroke:#000000;stroke-width:0.21333334;stroke-linecap:round;stroke-linejoin:round;stroke-miterlimit:4;stroke-dasharray:none;stroke-dashoffset:0;stroke-opacity:1" />
    <rect
       ry="0"
       y="16.074312"
       x="15.073927"
       height="2.133285"
       width="7.4187913"
       id="rect4248"
       style="opacity:1;fill:none;fill-opacity:1;stroke:#000000;stroke-width:0.21333334;stroke-linecap:round;stroke-linejoin:round;stroke-miterlimit:4;stroke-dasharray:none;stroke-dashoffset:0;stroke-opacity:1" />
  </g>
  <path
     style="opacity:1;fill:none;fill-opacity:1;stroke:#ffcc00;stroke-width:0.53425813;stroke-linecap:round;stroke-linejoin:round;stroke-miterlimit:4;stroke-dasharray:none;stroke-dashoffset:0;stroke-opacity:1;marker-end:url(#marker5123)"
     d="m 23.777222,16.659754 c 5.607637,-0.0591 4.584606,-2.36284 6.684889,-4.353311 2.257813,-2.139754 7.953991,-1.903645 7.953991,-1.903645"
     id="path4303"
     inkscape:connector-curvature="0"
     sodipodi:nodetypes="csc" />
  <path
     style="opacity:1;fill:none;fill-opacity:1;stroke:#0000ff;stroke-width:0.53425813;stroke-linecap:round;stroke-linejoin:round;stroke-miterlimit:4;stroke-dasharray:none;stroke-dashoffset:0;stroke-opacity:1;marker-end:url(#marker5047)"
     d="m 23.777222,21.736141 c 4.840276,-0.590272 5.43055,6.138877 6.138884,11.687481 0.933686,4.148857 -0.40319,9.427544 6.611109,9.562478"
     id="path4307"
     inkscape:connector-curvature="0"
     sodipodi:nodetypes="ccc" />
  <path
     style="opacity:1;fill:none;fill-opacity:1;stroke:#008000;stroke-width:0.53425813;stroke-linecap:round;stroke-linejoin:round;stroke-miterlimit:4;stroke-dasharray:none;stroke-dashoffset:0;stroke-opacity:1;marker-end:url(#marker4977)"
     d="m 23.777222,26.812528 c 5.548607,0.354163 5.548607,-3.659735 6.611106,-7.083336 2.0984,-5.076813 4.732532,-4.588392 8.145828,-4.60417"
     id="path4309"
     inkscape:connector-curvature="0"
     sodipodi:nodetypes="ccc" />
  <path
     style="opacity:1;fill:none;fill-opacity:1;stroke:#ff0000;stroke-width:0.53425813;stroke-linecap:round;stroke-linejoin:round;stroke-miterlimit:4;stroke-dasharray:none;stroke-dashoffset:0;stroke-opacity:1;marker-end:url(#marker4913)"
     d="m 23.836249,32.00697 c 6.788193,-0.0591 7.108553,-3.288993 8.145828,-5.784738 1.251624,-3.138108 1.369408,-5.823882 6.611107,-6.07985"
     id="path4313"
     inkscape:connector-curvature="0"
     sodipodi:nodetypes="ccc" />
  <path
     style="opacity:1;fill:none;fill-opacity:1;stroke:#800080;stroke-width:0.53425813;stroke-linecap:round;stroke-linejoin:round;stroke-miterlimit:4;stroke-dasharray:none;stroke-dashoffset:0;stroke-opacity:1;marker-end:url(#marker4903)"
     d="m 23.777222,37.378493 c 6.374998,-1.35765 8.027771,-2.656248 9.267354,-5.489577 1.50441,-3.717886 0.09674,-6.666415 5.666664,-6.729174"
     id="path4315"
     inkscape:connector-curvature="0"
     sodipodi:nodetypes="ccc" />
  <path
     style="opacity:1;fill:none;fill-opacity:1;stroke:#2ca05a;stroke-width:0.53425813;stroke-linecap:round;stroke-linejoin:round;stroke-miterlimit:4;stroke-dasharray:none;stroke-dashoffset:0;stroke-opacity:1;marker-end:url(#Arrow1Send)"
     d="m 23.777222,42.750016 c 3.010416,0.0591 3.494502,-0.292907 5.852644,2.262066 1.76222,1.651684 2.759764,2.818604 7.07443,2.755294"
     id="path4317"
     inkscape:connector-curvature="0"
     sodipodi:nodetypes="ccc" />
  <path
     style="opacity:1;fill:none;fill-opacity:1;stroke:#a02c2c;stroke-width:0.53425813;stroke-linecap:round;stroke-linejoin:round;stroke-miterlimit:4;stroke-dasharray:none;stroke-dashoffset:0;stroke-opacity:1;marker-end:url(#marker5205)"
     d="m 23.850572,47.944458 c 1.619217,-0.0864 4.021556,-0.189578 6.065534,2.065976 1.38074,1.473751 1.807642,3.233723 6.847218,3.187493"
     id="path4319"
     inkscape:connector-curvature="0"
     sodipodi:nodetypes="ccc" />
  <path
     style="opacity:1;fill:none;fill-opacity:1;stroke:#ffcc00;stroke-width:0.53425813;stroke-linecap:round;stroke-linejoin:round;stroke-miterlimit:4;stroke-dasharray:none;stroke-dashoffset:0;stroke-opacity:1"
     d="m 57.286447,10.073328 h 5.885187"
     id="path5815"
     inkscape:connector-curvature="0" />
  <path
     style="opacity:1;fill:none;fill-opacity:1;stroke:#a02c2c;stroke-width:0.53425813;stroke-linecap:round;stroke-linejoin:round;stroke-miterlimit:4;stroke-dasharray:none;stroke-dashoffset:0;stroke-opacity:1"
     d="m 57.369924,15.248937 h 5.80171"
     id="path5817"
     inkscape:connector-curvature="0" />
  <path
     inkscape:connector-curvature="0"
     id="path5819"
     d="m 57.369924,15.248937 h 5.80171"
     style="opacity:1;fill:none;fill-opacity:1;stroke:#008000;stroke-width:0.53425813;stroke-linecap:round;stroke-linejoin:round;stroke-miterlimit:4;stroke-dasharray:none;stroke-dashoffset:0;stroke-opacity:1" />
  <path
     style="opacity:1;fill:none;fill-opacity:1;stroke:#ff0000;stroke-width:0.53425813;stroke-linecap:round;stroke-linejoin:round;stroke-miterlimit:4;stroke-dasharray:none;stroke-dashoffset:0;stroke-opacity:1"
     d="m 57.369924,20.591535 h 5.80171"
     id="path5821"
     inkscape:connector-curvature="0" />
  <path
     inkscape:connector-curvature="0"
     id="path5823"
     d="m 57.369924,25.934108 h 5.80171"
     style="opacity:1;fill:none;fill-opacity:1;stroke:#a02c2c;stroke-width:0.53425813;stroke-linecap:round;stroke-linejoin:round;stroke-miterlimit:4;stroke-dasharray:none;stroke-dashoffset:0;stroke-opacity:1" />
  <path
     style="opacity:1;fill:none;fill-opacity:1;stroke:#800080;stroke-width:0.53425813;stroke-linecap:round;stroke-linejoin:round;stroke-miterlimit:4;stroke-dasharray:none;stroke-dashoffset:0;stroke-opacity:1"
     d="m 57.369924,25.934108 h 5.80171"
     id="path5825"
     inkscape:connector-curvature="0" />
  <path
     style="opacity:1;fill:none;fill-opacity:1;stroke:#a02c2c;stroke-width:0.53425813;stroke-linecap:round;stroke-linejoin:round;stroke-miterlimit:4;stroke-dasharray:none;stroke-dashoffset:0;stroke-opacity:1"
     d="M 55.324718,43.172272 H 63.33859"
     id="path5827"
     inkscape:connector-curvature="0" />
  <path
     inkscape:connector-curvature="0"
     id="path5829"
     d="M 55.324718,43.172272 H 63.33859"
     style="opacity:1;fill:none;fill-opacity:1;stroke:#0000ff;stroke-width:0.53425813;stroke-linecap:round;stroke-linejoin:round;stroke-miterlimit:4;stroke-dasharray:none;stroke-dashoffset:0;stroke-opacity:1" />
  <path
     style="opacity:1;fill:none;fill-opacity:1;stroke:#2ca05a;stroke-width:0.53425813;stroke-linecap:round;stroke-linejoin:round;stroke-miterlimit:4;stroke-dasharray:none;stroke-dashoffset:0;stroke-opacity:1"
     d="M 55.324718,48.014003 H 63.33859"
     id="path5831"
     inkscape:connector-curvature="0" />
  <path
     inkscape:connector-curvature="0"
     id="path5833"
     d="M 55.324718,53.231359 H 63.33859"
     style="opacity:1;fill:none;fill-opacity:1;stroke:#a02c2c;stroke-width:0.53425813;stroke-linecap:round;stroke-linejoin:round;stroke-miterlimit:4;stroke-dasharray:none;stroke-dashoffset:0;stroke-opacity:1" />
</svg>
