<?xml version="1.0" encoding="UTF-8" standalone="no"?>
<!-- Created with Inkscape (http://www.inkscape.org/) -->

<svg
   xmlns:dc="http://purl.org/dc/elements/1.1/"
   xmlns:cc="http://creativecommons.org/ns#"
   xmlns:rdf="http://www.w3.org/1999/02/22-rdf-syntax-ns#"
   xmlns:svg="http://www.w3.org/2000/svg"
   xmlns="http://www.w3.org/2000/svg"
   xmlns:xlink="http://www.w3.org/1999/xlink"
   xmlns:sodipodi="http://sodipodi.sourceforge.net/DTD/sodipodi-0.dtd"
   xmlns:inkscape="http://www.inkscape.org/namespaces/inkscape"
   id="svg2405"
   height="158.53658"
   width="186.25809"
   version="1.1"
   inkscape:version="0.92.1 r15371"
   sodipodi:docname="graphlarge.svg">
  <metadata
     id="metadata59">
    <rdf:RDF>
      <cc:Work
         rdf:about="">
        <dc:format>image/svg+xml</dc:format>
        <dc:type
           rdf:resource="http://purl.org/dc/dcmitype/StillImage" />
        <dc:title></dc:title>
      </cc:Work>
    </rdf:RDF>
  </metadata>
  <sodipodi:namedview
     pagecolor="#ffffff"
     bordercolor="#666666"
     borderopacity="1"
     objecttolerance="10"
     gridtolerance="10"
     guidetolerance="10"
     inkscape:pageopacity="0"
     inkscape:pageshadow="2"
     inkscape:window-width="2491"
     inkscape:window-height="1592"
     id="namedview57"
     showgrid="false"
     inkscape:zoom="5.6568543"
     inkscape:cx="77.98722"
     inkscape:cy="103.9834"
     inkscape:window-x="0"
     inkscape:window-y="55"
     inkscape:window-maximized="0"
     inkscape:current-layer="svg2405"
     fit-margin-top="10"
     fit-margin-left="10"
     fit-margin-right="10"
     fit-margin-bottom="10" />
  <defs
     id="defs2407">
    <marker
       inkscape:isstock="true"
       style="overflow:visible"
       id="marker5205"
       refX="0"
       refY="0"
       orient="auto"
       inkscape:stockid="Arrow1Send">
      <path
         style="fill:#a02c2c;fill-opacity:1;fill-rule:evenodd;stroke:#a02c2c;stroke-width:0.21333334pt;stroke-opacity:1"
         d="M -1.28,0 -2.3466667,1.0666667 1.3866667,0 -2.3466667,-1.0666667 Z"
         id="path5207"
         inkscape:connector-curvature="0" />
    </marker>
    <marker
       inkscape:isstock="true"
       style="overflow:visible"
       id="marker5123"
       refX="0"
       refY="0"
       orient="auto"
       inkscape:stockid="Arrow1Send">
      <path
         style="fill:#ffcc00;fill-opacity:1;fill-rule:evenodd;stroke:#ffcc00;stroke-width:0.21333334pt;stroke-opacity:1"
         d="M -1.28,0 -2.3466667,1.0666667 1.3866667,0 -2.3466667,-1.0666667 Z"
         id="path5125"
         inkscape:connector-curvature="0" />
    </marker>
    <marker
       inkscape:isstock="true"
       style="overflow:visible"
       id="marker5047"
       refX="0"
       refY="0"
       orient="auto"
       inkscape:stockid="Arrow1Send">
      <path
         style="fill:#0000ff;fill-opacity:1;fill-rule:evenodd;stroke:#0000ff;stroke-width:0.21333334pt;stroke-opacity:1"
         d="M -1.28,0 -2.3466667,1.0666667 1.3866667,0 -2.3466667,-1.0666667 Z"
         id="path5049"
         inkscape:connector-curvature="0" />
    </marker>
    <marker
       inkscape:isstock="true"
       style="overflow:visible"
       id="marker4977"
       refX="0"
       refY="0"
       orient="auto"
       inkscape:stockid="Arrow1Send">
      <path
         style="fill:#008000;fill-opacity:1;fill-rule:evenodd;stroke:#008000;stroke-width:0.21333334pt;stroke-opacity:1"
         d="M -1.28,0 -2.3466667,1.0666667 1.3866667,0 -2.3466667,-1.0666667 Z"
         id="path4979"
         inkscape:connector-curvature="0" />
    </marker>
    <marker
       inkscape:isstock="true"
       style="overflow:visible"
       id="marker4913"
       refX="0"
       refY="0"
       orient="auto"
       inkscape:stockid="Arrow1Send">
      <path
         style="fill:#ff0000;fill-opacity:1;fill-rule:evenodd;stroke:#ff0000;stroke-width:0.21333334pt;stroke-opacity:1"
         d="M -1.28,0 -2.3466667,1.0666667 1.3866667,0 -2.3466667,-1.0666667 Z"
         id="path4915"
         inkscape:connector-curvature="0" />
    </marker>
    <marker
       inkscape:isstock="true"
       style="overflow:visible"
       id="marker4903"
       refX="0"
       refY="0"
       orient="auto"
       inkscape:stockid="Arrow1Send">
      <path
         style="fill:#800080;fill-opacity:1;fill-rule:evenodd;stroke:#800080;stroke-width:0.21333334pt;stroke-opacity:1"
         d="M -1.28,0 -2.3466667,1.0666667 1.3866667,0 -2.3466667,-1.0666667 Z"
         id="path4905"
         inkscape:connector-curvature="0" />
    </marker>
    <marker
       inkscape:stockid="Arrow1Send"
       orient="auto"
       refY="0"
       refX="0"
       id="Arrow1Send"
       style="overflow:visible"
       inkscape:isstock="true"
       inkscape:collect="always">
      <path
         id="path4340"
         d="M -1.28,0 -2.3466667,1.0666667 1.3866667,0 -2.3466667,-1.0666667 Z"
         style="fill:#2ca05a;fill-opacity:1;fill-rule:evenodd;stroke:#2ca05a;stroke-width:0.21333334pt;stroke-opacity:1"
         inkscape:connector-curvature="0" />
    </marker>
    <marker
       inkscape:isstock="true"
       style="overflow:visible"
       id="marker4771"
       refX="0"
       refY="0"
       orient="auto"
       inkscape:stockid="Arrow2Lend">
      <path
         d="M -11.403143,-4.732916 1.416553,-0.01878889 -11.403144,4.6953372 c 2.0480517,-2.7832182 2.0362508,-6.5911436 10e-7,-9.4282532 z"
         style="fill:#000000;fill-opacity:1;fill-rule:evenodd;stroke:#000000;stroke-width:0.73333335;stroke-linejoin:round;stroke-opacity:1"
         id="path4773"
         inkscape:connector-curvature="0" />
    </marker>
    <marker
       inkscape:isstock="true"
       style="overflow:visible"
       id="marker4725"
       refX="0"
       refY="0"
       orient="auto"
       inkscape:stockid="Arrow2Lend">
      <path
         d="M -11.403143,-4.732916 1.416553,-0.01878889 -11.403144,4.6953372 c 2.0480517,-2.7832182 2.0362508,-6.5911436 10e-7,-9.4282532 z"
         style="fill:#000000;fill-opacity:1;fill-rule:evenodd;stroke:#000000;stroke-width:0.73333335;stroke-linejoin:round;stroke-opacity:1"
         id="path4727"
         inkscape:connector-curvature="0" />
    </marker>
    <marker
       inkscape:isstock="true"
       style="overflow:visible"
       id="marker4685"
       refX="0"
       refY="0"
       orient="auto"
       inkscape:stockid="Arrow2Lend">
      <path
         d="M -11.403143,-4.732916 1.416553,-0.01878889 -11.403144,4.6953372 c 2.0480517,-2.7832182 2.0362508,-6.5911436 10e-7,-9.4282532 z"
         style="fill:#000000;fill-opacity:1;fill-rule:evenodd;stroke:#000000;stroke-width:0.73333335;stroke-linejoin:round;stroke-opacity:1"
         id="path4687"
         inkscape:connector-curvature="0" />
    </marker>
    <marker
       inkscape:isstock="true"
       style="overflow:visible"
       id="marker4651"
       refX="0"
       refY="0"
       orient="auto"
       inkscape:stockid="Arrow2Lend">
      <path
         d="M -11.403143,-4.732916 1.416553,-0.01878889 -11.403144,4.6953372 c 2.0480517,-2.7832182 2.0362508,-6.5911436 10e-7,-9.4282532 z"
         style="fill:#000000;fill-opacity:1;fill-rule:evenodd;stroke:#000000;stroke-width:0.73333335;stroke-linejoin:round;stroke-opacity:1"
         id="path4653"
         inkscape:connector-curvature="0" />
    </marker>
    <marker
       inkscape:isstock="true"
       style="overflow:visible"
       id="marker4623"
       refX="0"
       refY="0"
       orient="auto"
       inkscape:stockid="Arrow2Lend">
      <path
         d="M -11.403143,-4.732916 1.416553,-0.01878889 -11.403144,4.6953372 c 2.0480517,-2.7832182 2.0362508,-6.5911436 10e-7,-9.4282532 z"
         style="fill:#000000;fill-opacity:1;fill-rule:evenodd;stroke:#000000;stroke-width:0.73333335;stroke-linejoin:round;stroke-opacity:1"
         id="path4625"
         inkscape:connector-curvature="0" />
    </marker>
    <marker
       inkscape:isstock="true"
       style="overflow:visible"
       id="marker4601"
       refX="0"
       refY="0"
       orient="auto"
       inkscape:stockid="Arrow2Lend">
      <path
         d="M -11.403143,-4.732916 1.416553,-0.01878889 -11.403144,4.6953372 c 2.0480517,-2.7832182 2.0362508,-6.5911436 10e-7,-9.4282532 z"
         style="fill:#000000;fill-opacity:1;fill-rule:evenodd;stroke:#000000;stroke-width:0.73333335;stroke-linejoin:round;stroke-opacity:1"
         id="path4603"
         inkscape:connector-curvature="0" />
    </marker>
    <linearGradient
       id="linearGradient2781">
      <stop
         id="stop2783"
         offset="0" />
      <stop
         id="stop2785"
         style="stop-opacity:0"
         offset="1" />
    </linearGradient>
    <radialGradient
       id="radialGradient2977"
       gradientUnits="userSpaceOnUse"
       cy="19.554001"
       cx="11.681"
       gradientTransform="matrix(2.0087,0,0,-1.9116,-2.5414,49.212)"
       r="8.2452002">
      <stop
         id="stop2343"
         offset="0" />
      <stop
         id="stop2345"
         style="stop-opacity:0"
         offset="1" />
    </radialGradient>
    <radialGradient
       id="radialGradient2980"
       gradientUnits="userSpaceOnUse"
       cy="24.202999"
       cx="7.5327001"
       gradientTransform="matrix(1.9045,0,0,1.8606,-11.125,-33.328)"
       r="8.2452002">
      <stop
         id="stop2301"
         style="stop-color:#fff"
         offset="0" />
      <stop
         id="stop2303"
         style="stop-color:#fff;stop-opacity:0"
         offset="1" />
    </radialGradient>
    <linearGradient
       id="linearGradient2984"
       y2="35.569"
       gradientUnits="userSpaceOnUse"
       x2="64.388"
       gradientTransform="matrix(0.17289,0,0,0.16955,1.1523,0.58776)"
       y1="65.124001"
       x1="64.388">
      <stop
         id="stop336"
         style="stop-color:#fff"
         offset="0" />
      <stop
         id="stop338"
         style="stop-color:#ff6200"
         offset=".85390" />
      <stop
         id="stop340"
         style="stop-color:#f25d00"
         offset="1" />
    </linearGradient>
    <radialGradient
       id="radialGradient2987"
       gradientUnits="userSpaceOnUse"
       cy="30.443001"
       cx="29.913"
       gradientTransform="matrix(1.2629,0,0,1.1551,-22.727,-19.754)"
       r="4.0019002">
      <stop
         id="stop2370"
         style="stop-color:#fff"
         offset="0" />
      <stop
         id="stop2372"
         style="stop-color:#fff;stop-opacity:0"
         offset="1" />
    </radialGradient>
    <radialGradient
       id="radialGradient2992"
       gradientUnits="userSpaceOnUse"
       cy="37.425999"
       cx="20.444"
       gradientTransform="matrix(0.55242,0,0,0.46777,-0.79572,2.1872)"
       r="1.0821">
      <stop
         id="stop2321"
         offset="0" />
      <stop
         id="stop2323"
         style="stop-opacity:0"
         offset="1" />
    </radialGradient>
    <linearGradient
       id="linearGradient2995"
       y2="45.897999"
       gradientUnits="userSpaceOnUse"
       x2="20.598"
       gradientTransform="matrix(0.35892,0,0,0.55281,3.1701,-1.1491)"
       y1="30.945"
       x1="19.645">
      <stop
         id="stop3658"
         style="stop-color:#c17d11"
         offset="0" />
      <stop
         id="stop3660"
         style="stop-color:#e9b96e"
         offset="1" />
    </linearGradient>
    <linearGradient
       id="linearGradient2998"
       y2="39.408001"
       gradientUnits="userSpaceOnUse"
       x2="17"
       gradientTransform="matrix(0.5,0,0,0.53333,0.5,-2)"
       y1="47.098"
       x1="19.641001">
      <stop
         id="stop3664"
         style="stop-color:#c17d11"
         offset="0" />
      <stop
         id="stop3666"
         style="stop-color:#8f5902"
         offset="1" />
    </linearGradient>
    <linearGradient
       id="linearGradient3001"
       y2="47.866001"
       gradientUnits="userSpaceOnUse"
       x2="24.066999"
       gradientTransform="matrix(0.4414,0,0,0.43367,1.182,1.4643)"
       y1="25.746"
       x1="24.066999">
      <stop
         id="stop4875"
         style="stop-color:#fff"
         offset="0" />
      <stop
         id="stop4877"
         style="stop-color:#fff;stop-opacity:0"
         offset="1" />
    </linearGradient>
    <linearGradient
       id="linearGradient3004"
       y2="5.5"
       gradientUnits="userSpaceOnUse"
       x2="29.816"
       gradientTransform="matrix(0.47204,0,0,0.46117,0.43823,0.73301)"
       y1="46.023998"
       x1="29.816">
      <stop
         id="stop17"
         style="stop-color:#ccc"
         offset="0" />
      <stop
         id="stop19"
         style="stop-color:#fff"
         offset=".9831" />
    </linearGradient>
    <linearGradient
       id="linearGradient2951"
       y2="40"
       gradientUnits="userSpaceOnUse"
       x2="21.875"
       gradientTransform="matrix(0.46809,0,0,0.375,0.53191,6)"
       y1="48.000999"
       x1="21.875">
      <stop
         id="stop2806"
         style="stop-opacity:0"
         offset="0" />
      <stop
         id="stop2812"
         offset=".5" />
      <stop
         id="stop2808"
         style="stop-opacity:0"
         offset="1" />
    </linearGradient>
    <radialGradient
       id="radialGradient2954"
       xlink:href="#linearGradient2781"
       gradientUnits="userSpaceOnUse"
       cy="44"
       cx="1"
       gradientTransform="matrix(0.93617,0,0,0.3,17.383,9.3)"
       r="5" />
    <radialGradient
       id="radialGradient2957"
       xlink:href="#linearGradient2781"
       gradientUnits="userSpaceOnUse"
       cy="44"
       cx="1"
       gradientTransform="matrix(0.93617,0,0,0.3,-6.617,-35.7)"
       r="5" />
  </defs>
  <g
     id="g3801"
     transform="matrix(7.080528,0,0,7.080528,-4.1173205,-10.191962)">
    <g
       transform="translate(0,-0.8)"
       id="g4281">
      <g
         transform="translate(-0.51854497,-1.3670731)"
         id="g4294">
        <path
           inkscape:connector-curvature="0"
           id="path3670"
           style="fill:#ffffff;stroke-width:1.06666672"
           d="m 11.335467,20.705067 a 0.262283,0.25436832 0 0 1 -0.524566,0 0.262283,0.25436832 0 1 1 0.524566,0 z" />
        <rect
           ry="1.0126871"
           y="7.6900349"
           x="2.6231768"
           height="14.9491"
           width="7.4587398"
           id="rect3407"
           style="opacity:1;fill:none;fill-opacity:1;stroke:#000000;stroke-width:0.21333334;stroke-linecap:round;stroke-linejoin:round;stroke-miterlimit:4;stroke-dasharray:none;stroke-dashoffset:0;stroke-opacity:1" />
        <rect
           ry="0"
           y="9.7574921"
           x="2.6288476"
           height="2.1273925"
           width="7.4423604"
           id="rect4209"
           style="opacity:1;fill:none;fill-opacity:1;stroke:#000000;stroke-width:0.21333334;stroke-linecap:round;stroke-linejoin:round;stroke-miterlimit:4;stroke-dasharray:none;stroke-dashoffset:0;stroke-opacity:1" />
        <rect
           y="14.003346"
           x="2.6190348"
           height="2.1484964"
           width="7.460506"
           id="rect4211"
           style="opacity:1;fill:none;fill-opacity:1;stroke:#000000;stroke-width:0.21333334;stroke-linecap:round;stroke-linejoin:round;stroke-miterlimit:4;stroke-dasharray:none;stroke-dashoffset:0;stroke-opacity:1" />
        <rect
           style="opacity:1;fill:none;fill-opacity:1;stroke:#000000;stroke-width:0.21333334;stroke-linecap:round;stroke-linejoin:round;stroke-miterlimit:4;stroke-dasharray:none;stroke-dashoffset:0;stroke-opacity:1"
           id="rect4291"
           width="7.460506"
           height="2.1484964"
           x="2.6190348"
           y="18.199303" />
      </g>
    </g>
    <g
       transform="translate(0,1.0666667)"
       id="g4276">
      <rect
         ry="1.0126871"
         y="1.8917594"
         x="15.53966"
         height="8.4241905"
         width="7.4420729"
         id="rect4240"
         style="opacity:1;fill:none;fill-opacity:1;stroke:#000000;stroke-width:0.21333334;stroke-linecap:round;stroke-linejoin:round;stroke-miterlimit:4;stroke-dasharray:none;stroke-dashoffset:0;stroke-opacity:1" />
      <rect
         ry="0"
         y="3.9592166"
         x="15.545332"
         height="2.1273923"
         width="7.4364672"
         id="rect4242"
         style="opacity:1;fill:none;fill-opacity:1;stroke:#000000;stroke-width:0.21333334;stroke-linecap:round;stroke-linejoin:round;stroke-miterlimit:4;stroke-dasharray:none;stroke-dashoffset:0;stroke-opacity:1" />
      <path
         sodipodi:nodetypes="cc"
         inkscape:connector-curvature="0"
         id="path4301"
         d="m 15.556349,8.2051731 h 7.412836"
         style="opacity:1;fill:none;fill-opacity:1;stroke:#000000;stroke-width:0.21333334;stroke-linecap:round;stroke-linejoin:round;stroke-miterlimit:4;stroke-dasharray:none;stroke-dashoffset:0;stroke-opacity:1" />
    </g>
    <g
       transform="translate(-0.33333333,2.0666667)"
       id="g4286">
      <rect
         style="opacity:1;fill:none;fill-opacity:1;stroke:#000000;stroke-width:0.21333334;stroke-linecap:round;stroke-linejoin:round;stroke-miterlimit:4;stroke-dasharray:none;stroke-dashoffset:0;stroke-opacity:1"
         id="rect4246"
         width="7.4323101"
         height="6.2374239"
         x="15.068255"
         y="14.006855"
         ry="1.0126871" />
      <rect
         style="opacity:1;fill:none;fill-opacity:1;stroke:#000000;stroke-width:0.21333334;stroke-linecap:round;stroke-linejoin:round;stroke-miterlimit:4;stroke-dasharray:none;stroke-dashoffset:0;stroke-opacity:1"
         id="rect4248"
         width="7.4187913"
         height="2.133285"
         x="15.073927"
         y="16.074312"
         ry="0" />
    </g>
    <path
       sodipodi:nodetypes="csc"
       inkscape:connector-curvature="0"
       id="path4303"
       d="M 9.5695118,6.6966787 C 11.808684,6.6731085 11.40018,5.753182 12.238839,4.9583745 13.140401,4.1039537 15.414928,4.1982347 15.414928,4.1982347"
       style="opacity:1;fill:none;fill-opacity:1;stroke:#ffcc00;stroke-width:0.21333334;stroke-linecap:round;stroke-linejoin:round;stroke-miterlimit:4;stroke-dasharray:none;stroke-dashoffset:0;stroke-opacity:1;marker-end:url(#marker5123)" />
    <path
       sodipodi:nodetypes="ccc"
       inkscape:connector-curvature="0"
       id="path4307"
       d="m 9.5695118,8.7237181 c 1.9327592,-0.2357026 2.1684602,2.4513029 2.4513032,4.6669049 0.372828,1.656666 -0.160997,3.764488 2.639866,3.818372"
       style="opacity:1;fill:none;fill-opacity:1;stroke:#0000ff;stroke-width:0.21333334;stroke-linecap:round;stroke-linejoin:round;stroke-miterlimit:4;stroke-dasharray:none;stroke-dashoffset:0;stroke-opacity:1;marker-end:url(#marker5047)" />
    <path
       sodipodi:nodetypes="ccc"
       inkscape:connector-curvature="0"
       id="path4309"
       d="M 9.5695118,10.750757 C 11.785113,10.892179 11.785113,9.2894035 12.209377,7.9223305 13.047284,5.8951194 14.099113,6.0901549 15.462068,6.0838528"
       style="opacity:1;fill:none;fill-opacity:1;stroke:#008000;stroke-width:0.21333334;stroke-linecap:round;stroke-linejoin:round;stroke-miterlimit:4;stroke-dasharray:none;stroke-dashoffset:0;stroke-opacity:1;marker-end:url(#marker4977)" />
    <path
       sodipodi:nodetypes="ccc"
       inkscape:connector-curvature="0"
       id="path4313"
       d="m 9.593082,12.824938 c 2.710577,-0.02357 2.838499,-1.313318 3.252691,-2.309883 0.499783,-1.2530733 0.546815,-2.3255285 2.639865,-2.427733"
       style="opacity:1;fill:none;fill-opacity:1;stroke:#ff0000;stroke-width:0.21333334;stroke-linecap:round;stroke-linejoin:round;stroke-miterlimit:4;stroke-dasharray:none;stroke-dashoffset:0;stroke-opacity:1;marker-end:url(#marker4913)" />
    <path
       sodipodi:nodetypes="ccc"
       inkscape:connector-curvature="0"
       id="path4315"
       d="m 9.5695118,14.969828 c 2.5455852,-0.542115 3.2055502,-1.06066 3.7005252,-2.192031 0.600722,-1.484579 0.03863,-2.661948 2.262742,-2.687006"
       style="opacity:1;fill:none;fill-opacity:1;stroke:#800080;stroke-width:0.21333334;stroke-linecap:round;stroke-linejoin:round;stroke-miterlimit:4;stroke-dasharray:none;stroke-dashoffset:0;stroke-opacity:1;marker-end:url(#marker4903)" />
    <path
       sodipodi:nodetypes="ccc"
       inkscape:connector-curvature="0"
       id="path4317"
       d="m 9.5695118,17.114719 c 1.2020822,0.02357 1.3953812,-0.116955 2.3370052,0.903266 0.703668,0.659525 1.101995,1.125483 2.824874,1.100203"
       style="opacity:1;fill:none;fill-opacity:1;stroke:#2ca05a;stroke-width:0.21333334;stroke-linecap:round;stroke-linejoin:round;stroke-miterlimit:4;stroke-dasharray:none;stroke-dashoffset:0;stroke-opacity:1;marker-end:url(#Arrow1Send)" />
    <path
       sodipodi:nodetypes="ccc"
       inkscape:connector-curvature="0"
       id="path4319"
       d="m 9.5988012,19.188898 c 0.6465658,-0.03452 1.6058378,-0.07573 2.4220138,0.824959 0.55134,0.588482 0.721805,1.291254 2.734146,1.272792"
       style="opacity:1;fill:none;fill-opacity:1;stroke:#a02c2c;stroke-width:0.21333334;stroke-linecap:round;stroke-linejoin:round;stroke-miterlimit:4;stroke-dasharray:none;stroke-dashoffset:0;stroke-opacity:1;marker-end:url(#marker5205)" />
    <path
       inkscape:connector-curvature="0"
       id="path5815"
       d="M 22.95,4.0666666 H 25.3"
       style="opacity:1;fill:none;fill-opacity:1;stroke:#ffcc00;stroke-width:0.21333334;stroke-linecap:round;stroke-linejoin:round;stroke-miterlimit:4;stroke-dasharray:none;stroke-dashoffset:0;stroke-opacity:1" />
    <path
       inkscape:connector-curvature="0"
       id="path5817"
       d="M 22.983333,6.1333332 H 25.3"
       style="opacity:1;fill:none;fill-opacity:1;stroke:#a02c2c;stroke-width:0.21333334;stroke-linecap:round;stroke-linejoin:round;stroke-miterlimit:4;stroke-dasharray:none;stroke-dashoffset:0;stroke-opacity:1" />
    <path
       style="opacity:1;fill:none;fill-opacity:1;stroke:#008000;stroke-width:0.21333334;stroke-linecap:round;stroke-linejoin:round;stroke-miterlimit:4;stroke-dasharray:none;stroke-dashoffset:0;stroke-opacity:1"
       d="M 22.983333,6.1333332 H 25.3"
       id="path5819"
       inkscape:connector-curvature="0" />
    <path
       inkscape:connector-curvature="0"
       id="path5821"
       d="M 22.983333,8.2666666 H 25.3"
       style="opacity:1;fill:none;fill-opacity:1;stroke:#ff0000;stroke-width:0.21333334;stroke-linecap:round;stroke-linejoin:round;stroke-miterlimit:4;stroke-dasharray:none;stroke-dashoffset:0;stroke-opacity:1" />
    <path
       style="opacity:1;fill:none;fill-opacity:1;stroke:#a02c2c;stroke-width:0.21333334;stroke-linecap:round;stroke-linejoin:round;stroke-miterlimit:4;stroke-dasharray:none;stroke-dashoffset:0;stroke-opacity:1"
       d="M 22.983333,10.4 H 25.3"
       id="path5823"
       inkscape:connector-curvature="0" />
    <path
       inkscape:connector-curvature="0"
       id="path5825"
       d="M 22.983333,10.4 H 25.3"
       style="opacity:1;fill:none;fill-opacity:1;stroke:#800080;stroke-width:0.21333334;stroke-linecap:round;stroke-linejoin:round;stroke-miterlimit:4;stroke-dasharray:none;stroke-dashoffset:0;stroke-opacity:1" />
    <path
       inkscape:connector-curvature="0"
       id="path5827"
       d="m 22.166667,17.283333 h 3.2"
       style="opacity:1;fill:none;fill-opacity:1;stroke:#a02c2c;stroke-width:0.21333334;stroke-linecap:round;stroke-linejoin:round;stroke-miterlimit:4;stroke-dasharray:none;stroke-dashoffset:0;stroke-opacity:1" />
    <path
       style="opacity:1;fill:none;fill-opacity:1;stroke:#0000ff;stroke-width:0.21333334;stroke-linecap:round;stroke-linejoin:round;stroke-miterlimit:4;stroke-dasharray:none;stroke-dashoffset:0;stroke-opacity:1"
       d="m 22.166667,17.283333 h 3.2"
       id="path5829"
       inkscape:connector-curvature="0" />
    <path
       inkscape:connector-curvature="0"
       id="path5831"
       d="m 22.166667,19.216667 h 3.2"
       style="opacity:1;fill:none;fill-opacity:1;stroke:#2ca05a;stroke-width:0.21333334;stroke-linecap:round;stroke-linejoin:round;stroke-miterlimit:4;stroke-dasharray:none;stroke-dashoffset:0;stroke-opacity:1" />
    <path
       style="opacity:1;fill:none;fill-opacity:1;stroke:#a02c2c;stroke-width:0.21333334;stroke-linecap:round;stroke-linejoin:round;stroke-miterlimit:4;stroke-dasharray:none;stroke-dashoffset:0;stroke-opacity:1"
       d="m 22.166667,21.3 h 3.2"
       id="path5833"
       inkscape:connector-curvature="0" />
  </g>
</svg>
