<?xml version="1.0" encoding="UTF-8" standalone="no"?>
<!-- Created with Inkscape (http://www.inkscape.org/) -->

<svg
   xmlns:dc="http://purl.org/dc/elements/1.1/"
   xmlns:cc="http://creativecommons.org/ns#"
   xmlns:rdf="http://www.w3.org/1999/02/22-rdf-syntax-ns#"
   xmlns:svg="http://www.w3.org/2000/svg"
   xmlns="http://www.w3.org/2000/svg"
   xmlns:xlink="http://www.w3.org/1999/xlink"
   xmlns:sodipodi="http://sodipodi.sourceforge.net/DTD/sodipodi-0.dtd"
   xmlns:inkscape="http://www.inkscape.org/namespaces/inkscape"
   id="svg2405"
   height="64"
   width="64"
   version="1.1"
   inkscape:version="0.92.5 (2060ec1f9f, 2020-04-08)"
   sodipodi:docname="graph_lineless.svg"
   inkscape:export-filename="/home/kms/home/phylo/phagealignment/lib/images/graph.png"
   inkscape:export-xdpi="94.809998"
   inkscape:export-ydpi="94.809998">
  <metadata
     id="metadata59">
    <rdf:RDF>
      <cc:Work
         rdf:about="">
        <dc:format>image/svg+xml</dc:format>
        <dc:type
           rdf:resource="http://purl.org/dc/dcmitype/StillImage" />
        <dc:title />
      </cc:Work>
    </rdf:RDF>
  </metadata>
  <sodipodi:namedview
     pagecolor="#ffffff"
     bordercolor="#666666"
     borderopacity="1"
     objecttolerance="10"
     gridtolerance="10"
     guidetolerance="10"
     inkscape:pageopacity="0"
     inkscape:pageshadow="2"
     inkscape:window-width="1920"
     inkscape:window-height="1136"
     id="namedview57"
     showgrid="false"
     inkscape:zoom="11.313709"
     inkscape:cx="22.638123"
     inkscape:cy="33.415791"
     inkscape:window-x="0"
     inkscape:window-y="27"
     inkscape:window-maximized="1"
     inkscape:current-layer="svg2405"
     fit-margin-top="1"
     fit-margin-left="1"
     fit-margin-right="1"
     fit-margin-bottom="1" />
  <defs
     id="defs2407">
    <marker
       inkscape:isstock="true"
       style="overflow:visible"
       id="marker5205"
       refX="0"
       refY="0"
       orient="auto"
       inkscape:stockid="Arrow1Send">
      <path
         style="fill:#a02c2c;fill-opacity:1;fill-rule:evenodd;stroke:#a02c2c;stroke-width:0.21333334pt;stroke-opacity:1"
         d="M -1.28,0 -2.3466667,1.0666667 1.3866667,0 -2.3466667,-1.0666667 Z"
         id="path5207"
         inkscape:connector-curvature="0" />
    </marker>
    <marker
       inkscape:isstock="true"
       style="overflow:visible"
       id="marker5123"
       refX="0"
       refY="0"
       orient="auto"
       inkscape:stockid="Arrow1Send">
      <path
         style="fill:#ffcc00;fill-opacity:1;fill-rule:evenodd;stroke:#ffcc00;stroke-width:0.21333334pt;stroke-opacity:1"
         d="M -1.28,0 -2.3466667,1.0666667 1.3866667,0 -2.3466667,-1.0666667 Z"
         id="path5125"
         inkscape:connector-curvature="0" />
    </marker>
    <marker
       inkscape:isstock="true"
       style="overflow:visible"
       id="marker5047"
       refX="0"
       refY="0"
       orient="auto"
       inkscape:stockid="Arrow1Send">
      <path
         style="fill:#0000ff;fill-opacity:1;fill-rule:evenodd;stroke:#0000ff;stroke-width:0.21333334pt;stroke-opacity:1"
         d="M -1.28,0 -2.3466667,1.0666667 1.3866667,0 -2.3466667,-1.0666667 Z"
         id="path5049"
         inkscape:connector-curvature="0" />
    </marker>
    <marker
       inkscape:isstock="true"
       style="overflow:visible"
       id="marker4977"
       refX="0"
       refY="0"
       orient="auto"
       inkscape:stockid="Arrow1Send">
      <path
         style="fill:#008000;fill-opacity:1;fill-rule:evenodd;stroke:#008000;stroke-width:0.21333334pt;stroke-opacity:1"
         d="M -1.28,0 -2.3466667,1.0666667 1.3866667,0 -2.3466667,-1.0666667 Z"
         id="path4979"
         inkscape:connector-curvature="0" />
    </marker>
    <marker
       inkscape:isstock="true"
       style="overflow:visible"
       id="marker4913"
       refX="0"
       refY="0"
       orient="auto"
       inkscape:stockid="Arrow1Send">
      <path
         style="fill:#ff0000;fill-opacity:1;fill-rule:evenodd;stroke:#ff0000;stroke-width:0.21333334pt;stroke-opacity:1"
         d="M -1.28,0 -2.3466667,1.0666667 1.3866667,0 -2.3466667,-1.0666667 Z"
         id="path4915"
         inkscape:connector-curvature="0" />
    </marker>
    <marker
       inkscape:isstock="true"
       style="overflow:visible"
       id="marker4903"
       refX="0"
       refY="0"
       orient="auto"
       inkscape:stockid="Arrow1Send">
      <path
         style="fill:#800080;fill-opacity:1;fill-rule:evenodd;stroke:#800080;stroke-width:0.21333334pt;stroke-opacity:1"
         d="M -1.28,0 -2.3466667,1.0666667 1.3866667,0 -2.3466667,-1.0666667 Z"
         id="path4905"
         inkscape:connector-curvature="0" />
    </marker>
    <marker
       inkscape:stockid="Arrow1Send"
       orient="auto"
       refY="0"
       refX="0"
       id="Arrow1Send"
       style="overflow:visible"
       inkscape:isstock="true"
       inkscape:collect="always">
      <path
         id="path4340"
         d="M -1.28,0 -2.3466667,1.0666667 1.3866667,0 -2.3466667,-1.0666667 Z"
         style="fill:#2ca05a;fill-opacity:1;fill-rule:evenodd;stroke:#2ca05a;stroke-width:0.21333334pt;stroke-opacity:1"
         inkscape:connector-curvature="0" />
    </marker>
    <marker
       inkscape:isstock="true"
       style="overflow:visible"
       id="marker4771"
       refX="0"
       refY="0"
       orient="auto"
       inkscape:stockid="Arrow2Lend">
      <path
         d="M -11.403143,-4.732916 1.416553,-0.01878889 -11.403144,4.6953372 c 2.0480517,-2.7832182 2.0362508,-6.5911436 10e-7,-9.4282532 z"
         style="fill:#000000;fill-opacity:1;fill-rule:evenodd;stroke:#000000;stroke-width:0.73333335;stroke-linejoin:round;stroke-opacity:1"
         id="path4773"
         inkscape:connector-curvature="0" />
    </marker>
    <marker
       inkscape:isstock="true"
       style="overflow:visible"
       id="marker4725"
       refX="0"
       refY="0"
       orient="auto"
       inkscape:stockid="Arrow2Lend">
      <path
         d="M -11.403143,-4.732916 1.416553,-0.01878889 -11.403144,4.6953372 c 2.0480517,-2.7832182 2.0362508,-6.5911436 10e-7,-9.4282532 z"
         style="fill:#000000;fill-opacity:1;fill-rule:evenodd;stroke:#000000;stroke-width:0.73333335;stroke-linejoin:round;stroke-opacity:1"
         id="path4727"
         inkscape:connector-curvature="0" />
    </marker>
    <marker
       inkscape:isstock="true"
       style="overflow:visible"
       id="marker4685"
       refX="0"
       refY="0"
       orient="auto"
       inkscape:stockid="Arrow2Lend">
      <path
         d="M -11.403143,-4.732916 1.416553,-0.01878889 -11.403144,4.6953372 c 2.0480517,-2.7832182 2.0362508,-6.5911436 10e-7,-9.4282532 z"
         style="fill:#000000;fill-opacity:1;fill-rule:evenodd;stroke:#000000;stroke-width:0.73333335;stroke-linejoin:round;stroke-opacity:1"
         id="path4687"
         inkscape:connector-curvature="0" />
    </marker>
    <marker
       inkscape:isstock="true"
       style="overflow:visible"
       id="marker4651"
       refX="0"
       refY="0"
       orient="auto"
       inkscape:stockid="Arrow2Lend">
      <path
         d="M -11.403143,-4.732916 1.416553,-0.01878889 -11.403144,4.6953372 c 2.0480517,-2.7832182 2.0362508,-6.5911436 10e-7,-9.4282532 z"
         style="fill:#000000;fill-opacity:1;fill-rule:evenodd;stroke:#000000;stroke-width:0.73333335;stroke-linejoin:round;stroke-opacity:1"
         id="path4653"
         inkscape:connector-curvature="0" />
    </marker>
    <marker
       inkscape:isstock="true"
       style="overflow:visible"
       id="marker4623"
       refX="0"
       refY="0"
       orient="auto"
       inkscape:stockid="Arrow2Lend">
      <path
         d="M -11.403143,-4.732916 1.416553,-0.01878889 -11.403144,4.6953372 c 2.0480517,-2.7832182 2.0362508,-6.5911436 10e-7,-9.4282532 z"
         style="fill:#000000;fill-opacity:1;fill-rule:evenodd;stroke:#000000;stroke-width:0.73333335;stroke-linejoin:round;stroke-opacity:1"
         id="path4625"
         inkscape:connector-curvature="0" />
    </marker>
    <marker
       inkscape:isstock="true"
       style="overflow:visible"
       id="marker4601"
       refX="0"
       refY="0"
       orient="auto"
       inkscape:stockid="Arrow2Lend">
      <path
         d="M -11.403143,-4.732916 1.416553,-0.01878889 -11.403144,4.6953372 c 2.0480517,-2.7832182 2.0362508,-6.5911436 10e-7,-9.4282532 z"
         style="fill:#000000;fill-opacity:1;fill-rule:evenodd;stroke:#000000;stroke-width:0.73333335;stroke-linejoin:round;stroke-opacity:1"
         id="path4603"
         inkscape:connector-curvature="0" />
    </marker>
    <linearGradient
       id="linearGradient2781">
      <stop
         id="stop2783"
         offset="0" />
      <stop
         id="stop2785"
         style="stop-opacity:0"
         offset="1" />
    </linearGradient>
    <radialGradient
       id="radialGradient2977"
       gradientUnits="userSpaceOnUse"
       cy="19.554001"
       cx="11.681"
       gradientTransform="matrix(2.0087,0,0,-1.9116,-2.5414,49.212)"
       r="8.2452002">
      <stop
         id="stop2343"
         offset="0" />
      <stop
         id="stop2345"
         style="stop-opacity:0"
         offset="1" />
    </radialGradient>
    <radialGradient
       id="radialGradient2980"
       gradientUnits="userSpaceOnUse"
       cy="24.202999"
       cx="7.5327001"
       gradientTransform="matrix(1.9045,0,0,1.8606,-11.125,-33.328)"
       r="8.2452002">
      <stop
         id="stop2301"
         style="stop-color:#fff"
         offset="0" />
      <stop
         id="stop2303"
         style="stop-color:#fff;stop-opacity:0"
         offset="1" />
    </radialGradient>
    <linearGradient
       id="linearGradient2984"
       y2="35.569"
       gradientUnits="userSpaceOnUse"
       x2="64.388"
       gradientTransform="matrix(0.17289,0,0,0.16955,1.1523,0.58776)"
       y1="65.124001"
       x1="64.388">
      <stop
         id="stop336"
         style="stop-color:#fff"
         offset="0" />
      <stop
         id="stop338"
         style="stop-color:#ff6200"
         offset=".85390" />
      <stop
         id="stop340"
         style="stop-color:#f25d00"
         offset="1" />
    </linearGradient>
    <radialGradient
       id="radialGradient2987"
       gradientUnits="userSpaceOnUse"
       cy="30.443001"
       cx="29.913"
       gradientTransform="matrix(1.2629,0,0,1.1551,-22.727,-19.754)"
       r="4.0019002">
      <stop
         id="stop2370"
         style="stop-color:#fff"
         offset="0" />
      <stop
         id="stop2372"
         style="stop-color:#fff;stop-opacity:0"
         offset="1" />
    </radialGradient>
    <radialGradient
       id="radialGradient2992"
       gradientUnits="userSpaceOnUse"
       cy="37.425999"
       cx="20.444"
       gradientTransform="matrix(0.55242,0,0,0.46777,-0.79572,2.1872)"
       r="1.0821">
      <stop
         id="stop2321"
         offset="0" />
      <stop
         id="stop2323"
         style="stop-opacity:0"
         offset="1" />
    </radialGradient>
    <linearGradient
       id="linearGradient2995"
       y2="45.897999"
       gradientUnits="userSpaceOnUse"
       x2="20.598"
       gradientTransform="matrix(0.35892,0,0,0.55281,3.1701,-1.1491)"
       y1="30.945"
       x1="19.645">
      <stop
         id="stop3658"
         style="stop-color:#c17d11"
         offset="0" />
      <stop
         id="stop3660"
         style="stop-color:#e9b96e"
         offset="1" />
    </linearGradient>
    <linearGradient
       id="linearGradient2998"
       y2="39.408001"
       gradientUnits="userSpaceOnUse"
       x2="17"
       gradientTransform="matrix(0.5,0,0,0.53333,0.5,-2)"
       y1="47.098"
       x1="19.641001">
      <stop
         id="stop3664"
         style="stop-color:#c17d11"
         offset="0" />
      <stop
         id="stop3666"
         style="stop-color:#8f5902"
         offset="1" />
    </linearGradient>
    <linearGradient
       id="linearGradient3001"
       y2="47.866001"
       gradientUnits="userSpaceOnUse"
       x2="24.066999"
       gradientTransform="matrix(0.4414,0,0,0.43367,1.182,1.4643)"
       y1="25.746"
       x1="24.066999">
      <stop
         id="stop4875"
         style="stop-color:#fff"
         offset="0" />
      <stop
         id="stop4877"
         style="stop-color:#fff;stop-opacity:0"
         offset="1" />
    </linearGradient>
    <linearGradient
       id="linearGradient3004"
       y2="5.5"
       gradientUnits="userSpaceOnUse"
       x2="29.816"
       gradientTransform="matrix(0.47204,0,0,0.46117,0.43823,0.73301)"
       y1="46.023998"
       x1="29.816">
      <stop
         id="stop17"
         style="stop-color:#ccc"
         offset="0" />
      <stop
         id="stop19"
         style="stop-color:#fff"
         offset=".9831" />
    </linearGradient>
    <linearGradient
       id="linearGradient2951"
       y2="40"
       gradientUnits="userSpaceOnUse"
       x2="21.875"
       gradientTransform="matrix(0.46809,0,0,0.375,0.53191,6)"
       y1="48.000999"
       x1="21.875">
      <stop
         id="stop2806"
         style="stop-opacity:0"
         offset="0" />
      <stop
         id="stop2812"
         offset=".5" />
      <stop
         id="stop2808"
         style="stop-opacity:0"
         offset="1" />
    </linearGradient>
    <radialGradient
       id="radialGradient2954"
       xlink:href="#linearGradient2781"
       gradientUnits="userSpaceOnUse"
       cy="44"
       cx="1"
       gradientTransform="matrix(0.93617,0,0,0.3,17.383,9.3)"
       r="5" />
    <radialGradient
       id="radialGradient2957"
       xlink:href="#linearGradient2781"
       gradientUnits="userSpaceOnUse"
       cy="44"
       cx="1"
       gradientTransform="matrix(0.93617,0,0,0.3,-6.617,-35.7)"
       r="5" />
  </defs>
  <rect
     style="opacity:0.38100011;fill:#f9f9f9;stroke-width:13.01174927;stroke-miterlimit:4;stroke-dasharray:none"
     id="rect3774"
     width="63.729424"
     height="63.807621"
     x="0.29289323"
     y="0.42980865"
     ry="13.449646" />
  <g
     id="g4281"
     transform="matrix(2.5022596,0,0,2.5022596,-0.01988922,-1.8222289)"
     style="fill:#f9f9f9;fill-opacity:1;stroke-width:0.55949431;stroke-miterlimit:4;stroke-dasharray:none">
    <g
       id="g4294"
       transform="translate(-0.51854497,-1.3670731)"
       style="fill:#f9f9f9;fill-opacity:1;stroke-width:0.55949431;stroke-miterlimit:4;stroke-dasharray:none">
      <rect
         style="opacity:1;fill:#f9f9f9;fill-opacity:1;stroke:#000000;stroke-width:0.55949431;stroke-linecap:round;stroke-linejoin:round;stroke-miterlimit:4;stroke-dasharray:none;stroke-dashoffset:0;stroke-opacity:1"
         id="rect3407"
         width="7.4587398"
         height="14.9491"
         x="2.6231768"
         y="7.6900349"
         ry="1.0126871" />
    </g>
  </g>
  <g
     id="g4276"
     transform="matrix(2.5022596,0,0,2.5022596,-0.01988922,2.8486563)"
     style="fill:#f9f9f9;fill-opacity:1;stroke-width:0.55949431;stroke-miterlimit:4;stroke-dasharray:none">
    <rect
       style="opacity:1;fill:#f9f9f9;fill-opacity:1;stroke:#000000;stroke-width:0.55949431;stroke-linecap:round;stroke-linejoin:round;stroke-miterlimit:4;stroke-dasharray:none;stroke-dashoffset:0;stroke-opacity:1"
       id="rect4240"
       width="7.4420729"
       height="8.4241905"
       x="15.53966"
       y="1.8917594"
       ry="1.0126871" />
  </g>
  <g
     id="g4286"
     transform="matrix(2.5022596,0,0,2.5022596,-0.85397572,5.3509161)"
     style="fill:#f9f9f9;fill-opacity:1;stroke-width:0.55949431;stroke-miterlimit:4;stroke-dasharray:none">
    <rect
       ry="1.0126871"
       y="14.006855"
       x="15.068255"
       height="6.2374239"
       width="7.4323101"
       id="rect4246"
       style="opacity:1;fill:#f9f9f9;fill-opacity:1;stroke:#000000;stroke-width:0.55949431;stroke-linecap:round;stroke-linejoin:round;stroke-miterlimit:4;stroke-dasharray:none;stroke-dashoffset:0;stroke-opacity:1" />
  </g>
  <path
     style="opacity:1;fill:none;fill-opacity:1;stroke:#ffcc00;stroke-width:0.734;stroke-linecap:round;stroke-linejoin:round;stroke-miterlimit:4;stroke-dasharray:none;stroke-dashoffset:0;stroke-opacity:1;marker-end:url(#marker5123)"
     d="m 23.925513,16.936408 c 5.60299,-0.05898 4.580807,-2.360873 6.67935,-4.349688 2.255942,-2.137983 7.947399,-1.902067 7.947399,-1.902067"
     id="path4303"
     inkscape:connector-curvature="0"
     sodipodi:nodetypes="csc" />
  <path
     style="opacity:1;fill:none;fill-opacity:1;stroke:#0000ff;stroke-width:0.734;stroke-linecap:round;stroke-linejoin:round;stroke-miterlimit:4;stroke-dasharray:none;stroke-dashoffset:0;stroke-opacity:1;marker-end:url(#marker5047)"
     d="m 23.925513,22.008587 c 4.836266,-0.589789 5.42605,6.133796 6.133797,11.677807 0.932913,4.145409 -0.402856,9.419727 6.60563,9.554558"
     id="path4307"
     inkscape:connector-curvature="0"
     sodipodi:nodetypes="ccc" />
  <path
     style="opacity:1;fill:none;fill-opacity:1;stroke:#008000;stroke-width:0.734;stroke-linecap:round;stroke-linejoin:round;stroke-miterlimit:4;stroke-dasharray:none;stroke-dashoffset:0;stroke-opacity:1;marker-end:url(#marker4977)"
     d="m 23.925513,27.080765 c 5.54401,0.353874 5.54401,-3.656686 6.605628,-7.077457 2.096661,-5.072609 4.72861,-4.58458 8.139077,-4.600349"
     id="path4309"
     inkscape:connector-curvature="0"
     sodipodi:nodetypes="ccc" />
  <path
     style="opacity:1;fill:none;fill-opacity:1;stroke:#ff0000;stroke-width:0.734;stroke-linecap:round;stroke-linejoin:round;stroke-miterlimit:4;stroke-dasharray:none;stroke-dashoffset:0;stroke-opacity:1;marker-end:url(#marker4913)"
     d="m 23.984492,32.270904 c 6.782567,-0.05898 7.102661,-3.286263 8.139077,-5.779927 1.250587,-3.135515 1.368274,-5.819076 6.605628,-6.074818"
     id="path4313"
     inkscape:connector-curvature="0"
     sodipodi:nodetypes="ccc" />
  <path
     style="opacity:1;fill:none;fill-opacity:1;stroke:#800080;stroke-width:0.734;stroke-linecap:round;stroke-linejoin:round;stroke-miterlimit:4;stroke-dasharray:none;stroke-dashoffset:0;stroke-opacity:1;marker-end:url(#marker4903)"
     d="m 23.925513,37.637976 c 6.369715,-1.356513 8.021119,-2.654047 9.259675,-5.485031 1.503162,-3.714802 0.09666,-6.660885 5.661968,-6.723587"
     id="path4315"
     inkscape:connector-curvature="0"
     sodipodi:nodetypes="ccc" />
  <path
     style="opacity:1;fill:none;fill-opacity:1;stroke:#2ca05a;stroke-width:0.734;stroke-linecap:round;stroke-linejoin:round;stroke-miterlimit:4;stroke-dasharray:none;stroke-dashoffset:0;stroke-opacity:1;marker-end:url(#Arrow1Send)"
     d="m 23.925513,43.00505 c 3.007922,0.05898 3.491606,-0.292652 5.847794,2.260206 1.76076,1.650302 2.757477,2.81625 7.068568,2.752993"
     id="path4317"
     inkscape:connector-curvature="0"
     sodipodi:nodetypes="ccc" />
  <path
     style="opacity:1;fill:none;fill-opacity:1;stroke:#a02c2c;stroke-width:0.734;stroke-linecap:round;stroke-linejoin:round;stroke-miterlimit:4;stroke-dasharray:none;stroke-dashoffset:0;stroke-opacity:1;marker-end:url(#marker5205)"
     d="m 23.998803,48.195184 c 1.617875,-0.08638 4.018223,-0.189496 6.060507,2.064261 1.379596,1.472538 1.806144,3.231052 6.841543,3.184857"
     id="path4319"
     inkscape:connector-curvature="0"
     sodipodi:nodetypes="ccc" />
  <path
     style="opacity:1;fill:none;fill-opacity:1;stroke:#ffcc00;stroke-width:0.734;stroke-linecap:round;stroke-linejoin:round;stroke-miterlimit:4;stroke-dasharray:none;stroke-dashoffset:0;stroke-opacity:1"
     d="m 57.406967,10.355435 h 5.88031"
     id="path5815"
     inkscape:connector-curvature="0" />
  <path
     style="opacity:1;fill:none;fill-opacity:1;stroke:#a02c2c;stroke-width:0.53381538;stroke-linecap:round;stroke-linejoin:round;stroke-miterlimit:4;stroke-dasharray:none;stroke-dashoffset:0;stroke-opacity:1"
     d="m 57.490375,15.526772 h 5.796902"
     id="path5817"
     inkscape:connector-curvature="0" />
  <path
     inkscape:connector-curvature="0"
     id="path5819"
     d="m 57.490375,15.526772 h 5.796902"
     style="opacity:1;fill:none;fill-opacity:1;stroke:#008000;stroke-width:0.734;stroke-linecap:round;stroke-linejoin:round;stroke-miterlimit:4;stroke-dasharray:none;stroke-dashoffset:0;stroke-opacity:1" />
  <path
     style="opacity:1;fill:none;fill-opacity:1;stroke:#ff0000;stroke-width:0.734;stroke-linecap:round;stroke-linejoin:round;stroke-miterlimit:4;stroke-dasharray:none;stroke-dashoffset:0;stroke-opacity:1"
     d="m 57.490375,20.864926 h 5.796902"
     id="path5821"
     inkscape:connector-curvature="0" />
  <path
     inkscape:connector-curvature="0"
     id="path5823"
     d="m 57.490375,26.20308 h 5.796902"
     style="opacity:1;fill:none;fill-opacity:1;stroke:#a02c2c;stroke-width:0.53381538;stroke-linecap:round;stroke-linejoin:round;stroke-miterlimit:4;stroke-dasharray:none;stroke-dashoffset:0;stroke-opacity:1" />
  <path
     style="opacity:1;fill:none;fill-opacity:1;stroke:#800080;stroke-width:0.734;stroke-linecap:round;stroke-linejoin:round;stroke-miterlimit:4;stroke-dasharray:none;stroke-dashoffset:0;stroke-opacity:1"
     d="m 57.490375,26.20308 h 5.796902"
     id="path5825"
     inkscape:connector-curvature="0" />
  <path
     style="opacity:1;fill:none;fill-opacity:1;stroke:#a02c2c;stroke-width:0.53381538;stroke-linecap:round;stroke-linejoin:round;stroke-miterlimit:4;stroke-dasharray:none;stroke-dashoffset:0;stroke-opacity:1"
     d="m 55.446866,43.426966 h 8.007231"
     id="path5827"
     inkscape:connector-curvature="0" />
  <path
     inkscape:connector-curvature="0"
     id="path5829"
     d="m 55.446866,43.426966 h 8.007231"
     style="opacity:1;fill:none;fill-opacity:1;stroke:#0000ff;stroke-width:0.734;stroke-linecap:round;stroke-linejoin:round;stroke-miterlimit:4;stroke-dasharray:none;stroke-dashoffset:0;stroke-opacity:1" />
  <path
     style="opacity:1;fill:none;fill-opacity:1;stroke:#2ca05a;stroke-width:0.734;stroke-linecap:round;stroke-linejoin:round;stroke-miterlimit:4;stroke-dasharray:none;stroke-dashoffset:0;stroke-opacity:1"
     d="m 55.446866,48.264669 h 8.007231"
     id="path5831"
     inkscape:connector-curvature="0" />
  <path
     inkscape:connector-curvature="0"
     id="path5833"
     d="m 55.446866,53.477707 h 8.007231"
     style="opacity:1;fill:none;fill-opacity:1;stroke:#a02c2c;stroke-width:0.734;stroke-linecap:round;stroke-linejoin:round;stroke-miterlimit:4;stroke-dasharray:none;stroke-dashoffset:0;stroke-opacity:1" />
</svg>
