{
  "title": "Alpha - ALignment of PHAges",
  "icon": "../src/alpha_aligner/images/icns/alpha-aligner.icns",
  "background": "images/appdmg_background.png",
  "contents": [
    { "x": 232, "y": 195, "type": "file", "path": "../dist/Alpha.app" },
    { "x": 495, "y": 190, "type": "link", "path": "/Applications" }
  ]
}
