KP793101
KP793102
KP793103
KP793104
KP793105
KP793106
KP793107
KP793108
KP793109
KP793110
KP793111
KP793112
KP793113
KP793114
KP793115
KP793116
KP793117
KP793118
KP793119
KP793120
KP793121
KP793122
KP793123
KP793124
KP793125
KP793126
KP793127
KP793128
KP793129
KP793130
KP793131
KP793132
KP793133
KP793134
KP793135
KM091442
KM091443
KM091444
